…
[http://www.pewsocialtrends.org/2014/09/18/2013-survey-of-lgbt-adults/]()

Data
==== 
It's a `.sav`  file (SPSS), but luckily the **foreign** package in **R** can import it painlessly. 


```r
survey <- foreign::read.spss('pew2013lgbtpublicdatarelease.sav') %>%
  as.tibble()
```

```
# A tibble: 1,197 x 181
   NEWCASEID Q1     Q2     Q3_A  Q3_B  Q3_C  Q3_D  Q4    Q5    Q6_A  Q6_B 
       <dbl> <fct>  <fct>  <fct> <fct> <fct> <fct> <fct> <fct> <fct> <fct>
 1        1. Prett… Wrong… Most… Most… Very… Most… A bi… Most… Some  Some 
 2        2. Prett… Right… Very… Most… Very… Most… A bi… Most… Some  Some 
 3        3. Not t… Right… Very… Most… Very… Most… A bi… Some… A lot A lot
 4        4. Prett… Right… Most… Most… Most… Most… A sm… Most… Some  Some 
 5        5. Prett… Right… Very… Most… Very… Most… A bi… Most… Some  A lot
 6        6. Prett… Wrong… Most… Most… Most… Most… A sm… Only… Some  Some 
 7        7. Prett… Wrong… Very… Most… Most… Most… A sm… Only… Some  A lot
 8        8. Prett… Right… Most… Most… Very… Most… A bi… Most… Some  Some 
 9        9. Prett… Right… Very… Most… Very… Most… A bi… Most… Some  Some 
10       10. Very … Right… Very… Most… Very… Very… A bi… Most… Only… Only…
# ... with 1,187 more rows, and 170 more variables: Q6_C <fct>,
#   Q6_D <fct>, Q6_E <fct>, Q8 <fct>, Q9A <fct>, Q9B <fct>, Q9C <fct>,
#   Q10 <fct>, Q11 <fct>, Q12 <fct>, OFTVOTE <fct>, SNS <fct>,
#   PARTY <fct>, PARTYLN <fct>, IDEO <fct>, SEX <fct>, MARITAL <fct>,
#   Q16 <fct>, Q17_A <fct>, Q17_B <fct>, Q17_C <fct>, Q17_D <fct>,
#   Q17_E <fct>, Q17_F <fct>, Q17_G <fct>, Q24 <fct>, Q25 <fct>,
#   QR2 <fct>, LGBT <fct>, Q27 <fct>, Q31 <fct>, Q32 <fct>,
#   Q32A_Codes <fct>, Q32A_posOE1 <fct>, Q32A_posOE2 <fct>,
#   Q32A_posOE3 <fct>, Q32A_posOE4 <fct>, Q32A_negOE1 <fct>,
…
Converting to Graph Data - Edge List
=====

```r
links <- survey %>%
  mutate(NEWCASEID = str_c("ID_", NEWCASEID)) %>%
  gather(question, answer, -NEWCASEID) %>%
  unite(answer, question, answer, sep = '::') %>%
  mutate(type = "person_answer")
links
```

```
# A tibble: 215,460 x 3
   NEWCASEID answer            type         
   <chr>     <chr>             <chr>        
 1 ID_1      Q1::Pretty happy  person_answer
 2 ID_2      Q1::Pretty happy  person_answer
 3 ID_3      Q1::Not too happy person_answer
 4 ID_4      Q1::Pretty happy  person_answer
 5 ID_5      Q1::Pretty happy  person_answer
 6 ID_6      Q1::Pretty happy  person_answer
 7 ID_7      Q1::Pretty happy  person_answer
 8 ID_8      Q1::Pretty happy  person_answer
 9 ID_9      Q1::Pretty happy  person_answer
10 ID_10     Q1::Very happy    person_answer
# ... with 215,450 more rows
```
…
nodes
```

```
# A tibble: 3,533 x 2
   name  type  
   <chr> <chr> 
 1 ID_1  person
 2 ID_2  person
 3 ID_3  person
 4 ID_4  person
 5 ID_5  person
 6 ID_6  person
 7 ID_7  person
 8 ID_8  person
 9 ID_9  person
10 ID_10 person
# ... with 3,523 more rows
```
…
