Playing With Graphs
…
#we don't want the function "create_links"
#so we will use a negative lookbehind regex
ls()[ls() %>% str_detect('(?<!create)_links')]

## [1] "bear_links"          "creature_links"      "hero_links"         
## [4] "people_links"        "porridge_links"      "red_links"          
## [7] "soylent_green_links" "victim_links"        "villain_links"

links <- ls()[ls() %>% str_detect('(?<!create)_links')] %>%
  lapply(get) %>%
  bind_rows()

links

## # A tibble: 36 x 3
##           item1          type     item2
##           <chr>         <chr>     <chr>
##  1    Mama Bear is related to Papa Bear
##  2    Mama Bear is related to Baby Bear
##  3    Papa Bear is related to Mama Bear
##  4    Papa Bear is related to Baby Bear
##  5    Baby Bear is related to Mama Bear
##  6    Baby Bear is related to Papa Bear
##  7    Mama Bear          is a  Creature
##  8    Papa Bear          is a  Creature
##  9    Baby Bear          is a  Creature
## 10 Big Bad Wolf          is a  Creature
## # ... with 26 more rows
…
